Lab #4
…
Part two: Tidying and exploring

For the following questions, work on the cleaned data frames defClean, offClean, and bioClean.

1. Reformat the offClean data frame into a tidy format using pivot_longer. The type of statistic (Receiving_REC for the number of receivings, Receiving_YDS for receiving yards, etc) is added as a new key column named stat.

library(dplyr)

tidy_offClean <- offClean %>% pivot_longer(Receiving_REC:Passing_INT, names_to = "stat", values_to = "value")
tidy_offClean

## # A tibble: 1,560 x 5
## # Groups:   Name, Opponent_Opponent [143]
##    Name          Opponent_Opponent num_game stat            value
##    <fct>         <fct>                <int> <chr>           <dbl>
##  1 Akers, Landen Louisiana                1 Receiving_REC       0
##  2 Akers, Landen Louisiana                1 Receiving_YDS       0
##  3 Akers, Landen Louisiana                1 Receiving_TD        0
##  4 Akers, Landen Louisiana                1 Rushing_ATT        NA
##  5 Akers, Landen Louisiana                1 Rushing_YDS        NA
##  6 Akers, Landen Louisiana                1 Rushing_TD         NA
##  7 Akers, Landen Louisiana                1 Passing_CMP-ATT    NA
##  8 Akers, Landen Louisiana                1 Passing_YDS        NA
##  9 Akers, Landen Louisiana                1 Passing_TD         NA
## 10 Akers, Landen Louisiana                1 Passing_INT        NA
## # ... with 1,550 more rows

2. Obtain the player-level offensive statistics. Namely, for each player and each type of statistics, obtain the sum of the statistics in all games.

library(dplyr)

offstat <- tidy_offClean %>% group_by(Name, stat) %>% 
  summarize(
    total = sum(value)
  )

## `summarise()` has grouped output by 'Name'. You can override using the `.groups` argument.

offstat

## # A tibble: 160 x 3
## # Groups:   Name [16]
##    Name          stat            total
##    <fct>         <chr>           <dbl>
##  1 Akers, Landen Passing_CMP-ATT    NA
##  2 Akers, Landen Passing_INT        NA
##  3 Akers, Landen Passing_TD         NA
##  4 Akers, Landen Passing_YDS        NA
##  5 Akers, Landen Receiving_REC      18
##  6 Akers, Landen Receiving_TD        1
##  7 Akers, Landen Receiving_YDS     269
##  8 Akers, Landen Rushing_ATT        NA
##  9 Akers, Landen Rushing_TD         NA
## 10 Akers, Landen Rushing_YDS        NA
## # ... with 150 more rows
…
It is very hard to see it because there are not much of a data, but you can see that the more you attempt(ATT) or receiving(REC) the more yards you get(YDS), and the more yards (YDS) the more you get touchdown (TD).

4. Did ISU have better offense against Oregon or Oklahoma? Answer this question by creating a scatterplot with the x- and y-axes being the receiving yards of the ISU players against each of these two opponents. A large number of receiving yards indicates good offense.

library(dplyr)
library(ggplot2)

filtered_data <- tidy_offClean %>% filter(Opponent_Opponent %in% c("Oregon", "Oklahoma") & stat == "Receiving_YDS")
filtered_data

## # A tibble: 42 x 5
## # Groups:   Name, Opponent_Opponent [29]
##    Name               Opponent_Opponent num_game stat          value
##    <fct>              <fct>                <int> <chr>         <dbl>
##  1 Akers, Landen      Oklahoma                 1 Receiving_YDS    35
##  2 Akers, Landen      Oklahoma                 2 Receiving_YDS    25
##  3 Akers, Landen      Oregon                   1 Receiving_YDS    16
##  4 Brock, Jirehl      Oklahoma                 1 Receiving_YDS     0
##  5 Brock, Jirehl      Oklahoma                 2 Receiving_YDS     6
##  6 Brock, Jirehl      Oregon                   1 Receiving_YDS     0
##  7 Hutchinson, Xavier Oklahoma                 1 Receiving_YDS    83
##  8 Hutchinson, Xavier Oklahoma                 2 Receiving_YDS   114
##  9 Hutchinson, Xavier Oregon                   1 Receiving_YDS    45
## 10 Nwangwu, Kene      Oklahoma                 1 Receiving_YDS     0
## # ... with 32 more rows

filtered_data <- filtered_data %>% group_by(Name, Opponent_Opponent) %>% summarize(
  meanval = mean(value)
)

## `summarise()` has grouped output by 'Name'. You can override using the `.groups` argument.

#meanval <- visib_delay  %>% group_by(visib) %>% summarize("delay_mean" = mean(dep_delay, na.rm= TRUE))

filtered_data

## # A tibble: 29 x 3
## # Groups:   Name [15]
##    Name          Opponent_Opponent meanval
##    <fct>         <fct>               <dbl>
##  1 Akers, Landen Oklahoma               30
##  2 Akers, Landen Oregon                 16
##  3 Allen, Chase  Oklahoma               27
##  4 Allen, Chase  Oregon                 21
##  5 Bitter, Aidan Oklahoma                0
##  6 Bitter, Aidan Oregon                  0
##  7 Brock, Jirehl Oklahoma                3
##  8 Brock, Jirehl Oregon                  0
##  9 Dean, Easton  Oklahoma                0
## 10 Dean, Easton  Oregon                  0
## # ... with 19 more rows
…
6. How many players are there from each state?

library(dplyr)

num_players_by_state <- bioClean %>% group_by(state) %>% summarize(
  sum = n()
)
num_players_by_state

## # A tibble: 21 x 2
##    state          sum
##    <chr>        <int>
##  1 " Ariz."         4
##  2 " Ark."          1
##  3 " Australia"     1
##  4 " Calif."        2
##  5 " Fla."         14
##  6 " Ga."           3
##  7 " Ill."          6
##  8 " Iowa"         42
##  9 " Kan."          4
## 10 " Mich"          1
## # ... with 11 more rows
…
